{
    "id": "87dfa2c3-d0de-48aa-b3e5-814496ae211e",
    "version": "0.1.0",
    "source": {
        "name": "common-primitives",
        "contact": "mailto:zinkov@robots.ox.ac.uk",
        "uris": [
            "https://gitlab.com/datadrivendiscovery/common-primitives/blob/master/common_primitives/logistic_regression.py",
            "https://gitlab.com/datadrivendiscovery/common-primitives.git"
        ]
    },
    "installation": [
        {
            "type": "UBUNTU",
            "package": "libopenblas-dev",
            "version": "0.2.20+ds-4"
        },
        {
            "type": "PIP",
            "package_uri": "git+https://gitlab.com/datadrivendiscovery/common-primitives.git@3df2ad23e1801e43166c64dc5767d847f232181d#egg=common-primitives"
        }
    ],
    "name": "common_primitives.BayesianLogisticRegression",
    "python_path": "d3m.primitives.classification.bayesian_logistic_regression.Common",
    "algorithm_types": [
        "MARKOV_CHAIN_MONTE_CARLO"
    ],
    "primitive_family": "CLASSIFICATION",
    "schema": "https://metadata.datadrivendiscovery.org/schemas/v0/primitive.json",
    "original_python_path": "common_primitives.logistic_regression.BayesianLogisticRegression",
    "primitive_code": {
        "class_type_arguments": {
            "Inputs": "d3m.container.numpy.ndarray",
            "Outputs": "d3m.container.numpy.ndarray",
            "Params": "common_primitives.logistic_regression.Params",
            "Hyperparams": "common_primitives.logistic_regression.Hyperparams"
        },
        "interfaces_version": "2019.4.4",
        "interfaces": [
            "base.ProbabilisticCompositionalityMixin",
            "base.SamplingCompositionalityMixin",
            "supervised_learning.SupervisedLearnerPrimitiveBase",
            "base.PrimitiveBase"
        ],
        "hyperparams": {
            "burnin": {
                "type": "d3m.metadata.hyperparams.Hyperparameter",
                "default": 1000,
                "structural_type": "int",
                "semantic_types": [
                    "https://metadata.datadrivendiscovery.org/types/ControlParameter"
                ],
                "description": "The number of samples to take before storing them"
            },
            "mu": {
                "type": "d3m.metadata.hyperparams.Hyperparameter",
                "default": 0.0,
                "structural_type": "float",
                "semantic_types": [
                    "https://metadata.datadrivendiscovery.org/types/ControlParameter"
                ],
                "description": "Mean of Gaussian prior on weights"
            },
            "sd": {
                "type": "d3m.metadata.hyperparams.Hyperparameter",
                "default": 1.0,
                "structural_type": "float",
                "semantic_types": [
                    "https://metadata.datadrivendiscovery.org/types/ControlParameter"
                ],
                "description": "Standard deviation of Gaussian prior on weights"
            }
        },
        "arguments": {
            "hyperparams": {
                "type": "common_primitives.logistic_regression.Hyperparams",
                "kind": "RUNTIME"
            },
            "random_seed": {
                "type": "int",
                "kind": "RUNTIME",
                "default": 0
            },
            "docker_containers": {
                "type": "typing.Union[NoneType, typing.Dict[str, d3m.primitive_interfaces.base.DockerContainer]]",
                "kind": "RUNTIME",
                "default": null
            },
            "timeout": {
                "type": "typing.Union[NoneType, float]",
                "kind": "RUNTIME",
                "default": null
            },
            "iterations": {
                "type": "typing.Union[NoneType, int]",
                "kind": "RUNTIME",
                "default": null
            },
            "produce_methods": {
                "type": "typing.Sequence[str]",
                "kind": "RUNTIME"
            },
            "inputs": {
                "type": "d3m.container.numpy.ndarray",
                "kind": "PIPELINE"
            },
            "outputs": {
                "type": "d3m.container.numpy.ndarray",
                "kind": "PIPELINE"
            },
            "num_samples": {
                "type": "int",
                "kind": "RUNTIME",
                "default": 1
            },
            "params": {
                "type": "common_primitives.logistic_regression.Params",
                "kind": "RUNTIME"
            },
            "seed": {
                "type": "int",
                "kind": "PIPELINE"
            }
        },
        "class_methods": {
            "can_accept": {
                "arguments": {
                    "method_name": {
                        "type": "str"
                    },
                    "arguments": {
                        "type": "typing.Dict[str, typing.Union[d3m.metadata.base.Metadata, type]]"
                    },
                    "hyperparams": {
                        "type": "common_primitives.logistic_regression.Hyperparams"
                    }
                },
                "returns": "typing.Union[NoneType, d3m.metadata.base.DataMetadata]",
                "description": "Returns a metadata object describing the output of a call of ``method_name`` method under\n``hyperparams`` with primitive arguments ``arguments``, if such arguments can be accepted by the method.\nOtherwise it returns ``None`` or raises an exception.\n\nDefault implementation checks structural types of ``arguments`` expected arguments' types\nand ignores ``hyperparams``.\n\nBy (re)implementing this method, a primitive can fine-tune which arguments it accepts\nfor its methods which goes beyond just structural type checking. For example, a primitive might\noperate only on images, so it can accept numpy arrays, but only those with semantic type\ncorresponding to an image. Or it might check dimensions of an array to assure it operates\non square matrix.\n\nPrimitive arguments are a superset of method arguments. This method receives primitive arguments and\nnot just method arguments so that it is possible to implement it without a state between calls\nto ``can_accept`` for multiple methods. For example, a call to ``fit`` could during normal execution\ninfluences what a later ``produce`` call outputs. But during ``can_accept`` call we can directly have\naccess to arguments which would have been given to ``fit`` to produce metadata of the ``produce`` call.\n\nNot all primitive arguments have to be provided, only those used by ``fit``, ``set_training_data``,\nand produce methods, and those used by the ``method_name`` method itself.\n\nParameters\n----------\nmethod_name : str\n    Name of the method which would be called.\narguments : Dict[str, Union[Metadata, type]]\n    A mapping between argument names and their metadata objects (for pipeline arguments) or types (for other).\nhyperparams : Hyperparams\n    Hyper-parameters under which the method would be called during regular primitive execution.\n\nReturns\n-------\nDataMetadata\n    Metadata object of the method call result, or ``None`` if arguments are not accepted\n    by the method."
            }
        },
        "instance_methods": {
            "__init__": {
                "kind": "OTHER",
                "arguments": [
                    "hyperparams",
                    "random_seed",
                    "docker_containers"
                ],
                "returns": "NoneType"
            },
            "fit": {
                "kind": "OTHER",
                "arguments": [
                    "timeout",
                    "iterations"
                ],
                "returns": "d3m.primitive_interfaces.base.CallResult[NoneType]",
                "description": "Sample a Bayesian Logistic Regression model using NUTS to find\nsome reasonable weights.\n\nParameters\n----------\ntimeout : float\n    A maximum time this primitive should be fitting during this method call, in seconds.\niterations : int\n    How many of internal iterations should the primitive do.\n\nReturns\n-------\nCallResult[None]\n    A ``CallResult`` with ``None`` value."
            },
            "fit_multi_produce": {
                "kind": "OTHER",
                "arguments": [
                    "produce_methods",
                    "inputs",
                    "outputs",
                    "timeout",
                    "iterations"
                ],
                "returns": "d3m.primitive_interfaces.base.MultiCallResult",
                "description": "A method calling ``fit`` and after that multiple produce methods at once.\n\nThis method allows primitive author to implement an optimized version of both fitting\nand producing a primitive on same data.\n\nIf any additional method arguments are added to primitive's ``set_training_data`` method\nor produce method(s), or removed from them, they have to be added to or removed from this\nmethod as well. This method should accept an union of all arguments accepted by primitive's\n``set_training_data`` method and produce method(s) and then use them accordingly when\ncomputing results.\n\nThe default implementation of this method just calls first ``set_training_data`` method,\n``fit`` method, and all produce methods listed in ``produce_methods`` in order and is\npotentially inefficient.\n\nParameters\n----------\nproduce_methods : Sequence[str]\n    A list of names of produce methods to call.\ninputs : Inputs\n    The inputs given to ``set_training_data`` and all produce methods.\noutputs : Outputs\n    The outputs given to ``set_training_data``.\ntimeout : float\n    A maximum time this primitive should take to both fit the primitive and produce outputs\n    for all produce methods listed in ``produce_methods`` argument, in seconds.\niterations : int\n    How many of internal iterations should the primitive do for both fitting and producing\n    outputs of all produce methods.\n\nReturns\n-------\nMultiCallResult\n    A dict of values for each produce method wrapped inside ``MultiCallResult``."
            },
            "get_params": {
                "kind": "OTHER",
                "arguments": [],
                "returns": "common_primitives.logistic_regression.Params",
                "description": "Returns parameters of this primitive.\n\nParameters are all parameters of the primitive which can potentially change during a life-time of\na primitive. Parameters which cannot are passed through constructor.\n\nParameters should include all data which is necessary to create a new instance of this primitive\nbehaving exactly the same as this instance, when the new instance is created by passing the same\nparameters to the class constructor and calling ``set_params``.\n\nNo other arguments to the method are allowed (except for private arguments).\n\nReturns\n-------\nParams\n    An instance of parameters."
            },
            "gradient_params": {
                "kind": "OTHER",
                "arguments": [
                    "outputs",
                    "inputs"
                ],
                "returns": "d3m.primitive_interfaces.base.Gradients[common_primitives.logistic_regression.Params]"
            },
            "log_likelihood": {
                "kind": "OTHER",
                "arguments": [
                    "outputs",
                    "inputs",
                    "timeout",
                    "iterations"
                ],
                "returns": "d3m.primitive_interfaces.base.CallResult[Outputs]",
                "description": "Returns log probability of outputs given inputs and params under this primitive:\n\nsum_i(log(p(output_i | input_i, params)))\n\nBy default it calls ``log_likelihoods`` and tries to automatically compute a sum, but subclasses can\nimplement a more efficient or even correct version.\n\nParameters\n----------\noutputs : Outputs\n    The outputs. The number of samples should match ``inputs``.\ninputs : Inputs\n    The inputs. The number of samples should match ``outputs``.\ntimeout : float\n    A maximum time this primitive should take to produce outputs during this method call, in seconds.\niterations : int\n    How many of internal iterations should the primitive do.\n\nReturns\n-------\nCallResult[Outputs]\n    sum_i(log(p(output_i | input_i, params))) wrapped inside ``CallResult``.\n    The number of returned samples is always 1.\n    The number of columns should match the number of target columns in ``outputs``."
            },
            "log_likelihoods": {
                "kind": "OTHER",
                "arguments": [
                    "outputs",
                    "inputs",
                    "timeout",
                    "iterations"
                ],
                "returns": "d3m.primitive_interfaces.base.CallResult[typing.Sequence[float]]",
                "description": "Provides a likelihood of the data given the weights\n\nParameters\n----------\noutputs : Outputs\n    The outputs. The number of samples should match ``inputs``.\ninputs : Inputs\n    The inputs. The number of samples should match ``outputs``.\ntimeout : float\n    A maximum time this primitive should take to produce outputs during this method call, in seconds.\niterations : int\n    How many of internal iterations should the primitive do.\n\nReturns\n-------\nCallResult[Outputs]\n    log(p(output_i | input_i, params))) wrapped inside ``CallResult``.\n    The number of columns should match the number of target columns in ``outputs``."
            },
            "multi_produce": {
                "kind": "OTHER",
                "arguments": [
                    "produce_methods",
                    "inputs",
                    "timeout",
                    "iterations"
                ],
                "returns": "d3m.primitive_interfaces.base.MultiCallResult",
                "description": "A method calling multiple produce methods at once.\n\nWhen a primitive has multiple produce methods it is common that they might compute the\nsame internal results for same inputs but return different representations of those results.\nIf caller is interested in multiple of those representations, calling multiple produce\nmethods might lead to recomputing same internal results multiple times. To address this,\nthis method allows primitive author to implement an optimized version which computes\ninternal results only once for multiple calls of produce methods, but return those different\nrepresentations.\n\nIf any additional method arguments are added to primitive's produce method(s), they have\nto be added to this method as well. This method should accept an union of all arguments\naccepted by primitive's produce method(s) and then use them accordingly when computing\nresults.\n\nThe default implementation of this method just calls all produce methods listed in\n``produce_methods`` in order and is potentially inefficient.\n\nParameters\n----------\nproduce_methods : Sequence[str]\n    A list of names of produce methods to call.\ninputs : Inputs\n    The inputs given to all produce methods.\ntimeout : float\n    A maximum time this primitive should take to produce outputs for all produce methods\n    listed in ``produce_methods`` argument, in seconds.\niterations : int\n    How many of internal iterations should the primitive do.\n\nReturns\n-------\nMultiCallResult\n    A dict of values for each produce method wrapped inside ``MultiCallResult``."
            },
            "produce": {
                "kind": "PRODUCE",
                "arguments": [
                    "inputs",
                    "timeout",
                    "iterations"
                ],
                "returns": "d3m.primitive_interfaces.base.CallResult[d3m.container.numpy.ndarray]",
                "singleton": false,
                "inputs_across_samples": [],
                "description": "Returns the MAP estimate of p(y | x = inputs; w)\n\nParameters\n----------\ninputs : Inputs\n    The inputs of shape [num_inputs, ...].\ntimeout : float\n    A maximum time this primitive should take to produce outputs during this method call, in seconds.\niterations : int\n    How many of internal iterations should the primitive do.\n\nReturns\n-------\nCallResult[Outputs]\n    The outputs of shape [num_inputs, ...] wrapped inside ``CallResult``."
            },
            "sample": {
                "kind": "OTHER",
                "arguments": [
                    "inputs",
                    "num_samples",
                    "timeout",
                    "iterations"
                ],
                "returns": "d3m.primitive_interfaces.base.CallResult[typing.Sequence[d3m.container.numpy.ndarray]]",
                "description": "Sample each input from ``inputs`` ``num_samples`` times.\n\nSemantics of ``timeout`` and ``iterations`` is the same as in ``produce``.\n\nParameters\n----------\ninputs : Inputs\n    The inputs of shape [num_inputs, ...].\nnum_samples : int\n    The number of samples to return in a set of samples.\ntimeout : float\n    A maximum time this primitive should take to sample outputs during this method call, in seconds.\niterations : int\n    How many of internal iterations should the primitive do.\n\nReturns\n-------\nCallResult[Sequence[Outputs]]\n    The multiple sets of samples of shape [num_samples, num_inputs, ...] wrapped inside\n    ``CallResult``. While the output value type is specified as ``Sequence[Outputs]``, the\n    output value can be in fact any container type with dimensions/shape equal to combined\n    ``Sequence[Outputs]`` dimensions/shape. Subclasses should specify which exactly type\n    the output is."
            },
            "set_params": {
                "kind": "OTHER",
                "arguments": [
                    "params"
                ],
                "returns": "NoneType",
                "description": "Sets parameters of this primitive.\n\nParameters are all parameters of the primitive which can potentially change during a life-time of\na primitive. Parameters which cannot are passed through constructor.\n\nNo other arguments to the method are allowed (except for private arguments).\n\nParameters\n----------\nparams : Params\n    An instance of parameters."
            },
            "set_random_seed": {
                "kind": "OTHER",
                "arguments": [
                    "seed"
                ],
                "returns": "NoneType"
            },
            "set_training_data": {
                "kind": "OTHER",
                "arguments": [
                    "inputs",
                    "outputs"
                ],
                "returns": "NoneType",
                "description": "Sets training data of this primitive.\n\nStandard sublasses in this package do not adhere to the Liskov substitution principle when\ninheriting this method because they do not necessary accept all arguments found in the base\nclass. This means that one has to inspect which arguments are accepted at runtime, or in\nother words, one has to inspect which exactly subclass a primitive implements, if\nyou are accepting a wider range of primitives. This relaxation is allowed only for\nstandard subclasses found in this package. Primitives themselves should not break\nthe Liskov substitution principle but should inherit from a suitable base class.\n\nParameters\n----------\ninputs : Inputs\n    The inputs.\noutputs : Outputs\n    The outputs."
            }
        },
        "class_attributes": {
            "logger": "logging.Logger",
            "metadata": "d3m.metadata.base.PrimitiveMetadata"
        },
        "instance_attributes": {
            "hyperparams": "d3m.metadata.hyperparams.Hyperparams",
            "random_seed": "int",
            "docker_containers": "typing.Dict[str, d3m.primitive_interfaces.base.DockerContainer]",
            "volumes": "typing.Dict[str, str]",
            "temporary_directory": "typing.Union[NoneType, str]"
        },
        "params": {
            "weights": "pymc3.backends.base.MultiTrace"
        }
    },
    "structural_type": "common_primitives.logistic_regression.BayesianLogisticRegression",
    "description": "Example of a primitive wrapping logistic regression using PyMC3 and its\nTheano backend.\n\nAttributes\n----------\nmetadata : PrimitiveMetadata\n    Primitive's metadata. Available as a class attribute.\nlogger : Logger\n    Primitive's logger. Available as a class attribute.\nhyperparams : Hyperparams\n    Hyperparams passed to the constructor.\nrandom_seed : int\n    Random seed passed to the constructor.\ndocker_containers : Dict[str, DockerContainer]\n    A dict mapping Docker image keys from primitive's metadata to (named) tuples containing\n    container's address under which the container is accessible by the primitive, and a\n    dict mapping exposed ports to ports on that address.\nvolumes : Dict[str, str]\n    A dict mapping volume keys from primitive's metadata to file and directory paths\n    where downloaded and extracted files are available to the primitive.\ntemporary_directory : str\n    An absolute path to a temporary directory a primitive can use to store any files\n    for the duration of the current pipeline run phase. Directory is automatically\n    cleaned up after the current pipeline run phase finishes.",
    "digest": "237706731bc6568271c51ebea2aa6533e92473d9be61f5a1b39a8d38462cbf33"
}
