{
    "id":"4a06c54f-df70-47bc-8702-6c9239749148",
    "schema":"https://metadata.datadrivendiscovery.org/schemas/v0/pipeline.json",
    "created":"2019-06-20T18:27:27.604349Z",
    "inputs":[
        {
            "name":"input dataset"
        }
    ],
    "outputs":[
        {
            "data":"steps.6.produce",
            "name":"predictions of input dataset"
        }
    ],
    "steps":[
        {
            "type":"PRIMITIVE",
            "primitive":{
                "id":"f31f8c1f-d1c5-43e5-a4b2-2ae4a761ef2e",
                "version":"0.2.0",
                "python_path":"d3m.primitives.data_transformation.denormalize.Common",
                "name":"Denormalize datasets",
                "digest":"60f854a4af97bc2310080d8ef22073cd8716e70cdaf3e426045aac01db7c1cd7"
            },
            "arguments":{
                "inputs":{
                    "type":"CONTAINER",
                    "data":"inputs.0"
                }
            },
            "outputs":[
                {
                    "id":"produce"
                }
            ],
            "hyperparams":{
                "starting_resource":{
                    "type":"VALUE",
                    "data":null
                },
                "recursive":{
                    "type":"VALUE",
                    "data":true
                },
                "many_to_many":{
                    "type":"VALUE",
                    "data":false
                },
                "discard_not_joined_tabular_resources":{
                    "type":"VALUE",
                    "data":false
                }
            }
        },
        {
            "type":"PRIMITIVE",
            "primitive":{
                "id":"4b42ce1e-9b98-4a25-b68e-fad13311eb65",
                "version":"0.3.0",
                "python_path":"d3m.primitives.data_transformation.dataset_to_dataframe.Common",
                "name":"Extract a DataFrame from a Dataset",
                "digest":"45f8322097914f9c95c4f9a8224d02db5d79b7166c74115e2eea7b23ccc13510"
            },
            "arguments":{
                "inputs":{
                    "type":"CONTAINER",
                    "data":"steps.0.produce"
                }
            },
            "outputs":[
                {
                    "id":"produce"
                }
            ]
        },
        {
            "type":"PRIMITIVE",
            "primitive":{
                "id":"4503a4c6-42f7-45a1-a1d4-ed69699cf5e1",
                "version":"0.3.0",
                "python_path":"d3m.primitives.data_transformation.extract_columns_by_semantic_types.DataFrameCommon",
                "name":"Extracts columns by semantic type",
                "digest":"e91e0f7569ad53b6d4b8c01641f80fb0aa764b5dd3ae71dd2fbb433fa62c7f81"
            },
            "arguments":{
                "inputs":{
                    "type":"CONTAINER",
                    "data":"steps.1.produce"
                }
            },
            "outputs":[
                {
                    "id":"produce"
                }
            ],
            "hyperparams":{
                "semantic_types":{
                    "type":"VALUE",
                    "data":[
                        "https://metadata.datadrivendiscovery.org/types/PrimaryKey",
                        "https://metadata.datadrivendiscovery.org/types/FileName"
                    ]
                }
            }
        },
        {
            "type":"PRIMITIVE",
            "primitive":{
                "id":"4503a4c6-42f7-45a1-a1d4-ed69699cf5e1",
                "version":"0.3.0",
                "python_path":"d3m.primitives.data_transformation.extract_columns_by_semantic_types.DataFrameCommon",
                "name":"Extracts columns by semantic type",
                "digest":"e91e0f7569ad53b6d4b8c01641f80fb0aa764b5dd3ae71dd2fbb433fa62c7f81"
            },
            "arguments":{
                "inputs":{
                    "type":"CONTAINER",
                    "data":"steps.1.produce"
                }
            },
            "outputs":[
                {
                    "id":"produce"
                }
            ],
            "hyperparams":{
                "semantic_types":{
                    "type":"VALUE",
                    "data":[
                        "https://metadata.datadrivendiscovery.org/types/TrueTarget"
                    ]
                }
            }
        },
        {
            "type":"PRIMITIVE",
            "primitive":{
                "id":"a29b0080-aeff-407d-9edb-0aa3eefbde01",
                "version":"0.2.0",
                "python_path":"d3m.primitives.data_preprocessing.video_reader.DataFrameCommon",
                "name":"Columns video reader",
                "digest":"ac50bea91b9a1a2d028ddc394d5062c9f660e2ae180c1a2aee496b1acc9a6e92"
            },
            "arguments":{
                "inputs":{
                    "type":"CONTAINER",
                    "data":"steps.2.produce"
                }
            },
            "outputs":[
                {
                    "id":"produce"
                }
            ]
        },
        {
            "type":"PRIMITIVE",
            "primitive":{
                "id":"dsbox-featurizer-image-inceptionV3",
                "version":"1.5.3",
                "python_path":"d3m.primitives.feature_extraction.inceptionV3_image_feature.DSBOX",
                "name":"DSBox Image Featurizer inceptionV3",
                "digest":"d6cb09095107f54dadf251fc75c688bedcf1870e3d6f5a456c58b873be50c9e8"
            },
            "arguments":{
                "inputs":{
                    "type":"CONTAINER",
                    "data":"steps.4.produce"
                }
            },
            "outputs":[
                {
                    "id":"produce"
                }
            ],
            "hyperparams":{
                "use_limitation":{
                    "type":"VALUE",
                    "data":true
                }
            }
        },
        {
            "type":"PRIMITIVE",
            "primitive":{
                "id":"dsbox-featurizer-video-classification-lstm",
                "version":"1.5.3",
                "python_path":"d3m.primitives.classification.lstm.DSBOX",
                "name":"DSBox Video Classification LSTM",
                "digest":"d2f6c71fcc3a2c85e275da039ae3ebe48671c334b720ed4e55b06cd027009146"
            },
            "arguments":{
                "inputs":{
                    "type":"CONTAINER",
                    "data":"steps.5.produce"
                },
                "outputs":{
                    "type":"CONTAINER",
                    "data":"steps.3.produce"
                }
            },
            "outputs":[
                {
                    "id":"produce"
                }
            ],
            "hyperparams":{
                "LSTM_units":{
                    "type":"VALUE",
                    "data":1024
                },
                "epochs":{
                    "type":"VALUE",
                    "data":100
                }
            }
        }
    ],
    "name":"DefaultVideoClassificationTemplate:140167157049600",
    "description":"",
    "digest":"edfa4404861b228fa449a4589d5318773c65fd61af81d50bf3149417c6f03859",
    "template_name":"DefaultVideoClassificationTemplate",
    "template_task":"CLASSIFICATION",
    "template_subtask":"MULTICLASS",
    "problem_taskType":"classification",
    "problem_taskSubType":"multiClass"
}